﻿{
  "x-generator": "NSwag v13.1.6.0 (NJsonSchema v10.0.28.0 (Newtonsoft.Json v12.0.0.0))",
  "openapi": "3.0.0",
  "info": {
    "title": "KPlatformCA API",
    "version": "1.0.0"
  },
  "paths": {
    "/api/Role/CreateRole": {
      "post": {
        "tags": [
          "Role"
        ],
        "operationId": "Role_CreateRole",
        "requestBody": {
          "x-name": "command",
          "content": {
            "application/json": {
              "schema": {
                "$ref": "#/components/schemas/CreateRoleItemCommand"
              }
            }
          },
          "required": true,
          "x-position": 1
        },
        "responses": {
          "200": {
            "description": "",
            "content": {
              "application/json": {
                "schema": {
                  "type": "string"
                }
              }
            }
          }
        },
        "security": [
          {
            "JWT": []
          }
        ]
      }
    },
    "/api/Role/GetRoles": {
      "get": {
        "tags": [
          "Role"
        ],
        "operationId": "Role_GetRoles",
        "responses": {
          "200": {
            "description": "",
            "content": {
              "application/json": {
                "schema": {
                  "$ref": "#/components/schemas/RolesVm"
                }
              }
            }
          }
        },
        "security": [
          {
            "JWT": []
          }
        ]
      }
    },
    "/api/Users/GetUsers": {
      "get": {
        "tags": [
          "Users"
        ],
        "operationId": "Users_GetUsers",
        "responses": {
          "200": {
            "description": "",
            "content": {
              "application/json": {
                "schema": {
                  "$ref": "#/components/schemas/UsersVm"
                }
              }
            }
          }
        },
        "security": [
          {
            "JWT": []
          }
        ]
      }
    },
    "/api/Users/ChangePassword": {
      "post": {
        "tags": [
          "Users"
        ],
        "operationId": "Users_ChangePassword",
        "requestBody": {
          "x-name": "command",
          "content": {
            "application/json": {
              "schema": {
                "$ref": "#/components/schemas/ChangePasswordCommand"
              }
            }
          },
          "required": true,
          "x-position": 1
        },
        "responses": {
          "200": {
            "description": "",
            "content": {
              "application/json": {
                "schema": {
                  "type": "boolean"
                }
              }
            }
          }
        },
        "security": [
          {
            "JWT": []
          }
        ]
      }
    },
    "/api/Users/AddRoleToUser": {
      "post": {
        "tags": [
          "Users"
        ],
        "operationId": "Users_AddRoleToUser",
        "requestBody": {
          "x-name": "command",
          "content": {
            "application/json": {
              "schema": {
                "$ref": "#/components/schemas/SetUserRoleCommand"
              }
            }
          },
          "required": true,
          "x-position": 1
        },
        "responses": {
          "200": {
            "description": "",
            "content": {
              "application/json": {
                "schema": {
                  "type": "boolean"
                }
              }
            }
          }
        },
        "security": [
          {
            "JWT": []
          }
        ]
      }
    },
    "/api/Users/RemoveRoleFromUser": {
      "delete": {
        "tags": [
          "Users"
        ],
        "operationId": "Users_RemoveRoleFromUser",
        "requestBody": {
          "x-name": "command",
          "content": {
            "application/json": {
              "schema": {
                "$ref": "#/components/schemas/RemoveUserRoleCommand"
              }
            }
          },
          "required": true,
          "x-position": 1
        },
        "responses": {
          "200": {
            "description": "",
            "content": {
              "application/json": {
                "schema": {
                  "type": "boolean"
                }
              }
            }
          }
        },
        "security": [
          {
            "JWT": []
          }
        ]
      }
    }
  },
  "components": {
    "schemas": {
      "CreateRoleItemCommand": {
        "type": "object",
        "additionalProperties": false,
        "properties": {
          "roleName": {
            "type": "string",
            "nullable": true
          }
        }
      },
      "RolesVm": {
        "type": "object",
        "additionalProperties": false,
        "properties": {
          "roles": {
            "type": "array",
            "nullable": true,
            "items": {
              "$ref": "#/components/schemas/ApplicationRoleDto"
            }
          }
        }
      },
      "ApplicationRoleDto": {
        "type": "object",
        "additionalProperties": false,
        "properties": {
          "id": {
            "type": "string",
            "nullable": true
          },
          "name": {
            "type": "string",
            "nullable": true
          }
        }
      },
      "UsersVm": {
        "type": "object",
        "additionalProperties": false,
        "properties": {
          "users": {
            "type": "array",
            "nullable": true,
            "items": {
              "$ref": "#/components/schemas/ApplicationUserDto"
            }
          }
        }
      },
      "ApplicationUserDto": {
        "type": "object",
        "additionalProperties": false,
        "properties": {
          "id": {
            "type": "string",
            "nullable": true
          },
          "userName": {
            "type": "string",
            "nullable": true
          },
          "email": {
            "type": "string",
            "nullable": true
          },
          "roleNames": {
            "type": "array",
            "nullable": true,
            "items": {
              "type": "string"
            }
          }
        }
      },
      "ChangePasswordCommand": {
        "type": "object",
        "additionalProperties": false,
        "properties": {
          "userId": {
            "type": "string",
            "nullable": true
          },
          "currentPassword": {
            "type": "string",
            "nullable": true
          },
          "newPassword": {
            "type": "string",
            "nullable": true
          }
        }
      },
      "SetUserRoleCommand": {
        "type": "object",
        "additionalProperties": false,
        "properties": {
          "userId": {
            "type": "string",
            "nullable": true
          },
          "roleId": {
            "type": "string",
            "nullable": true
          }
        }
      },
      "RemoveUserRoleCommand": {
        "type": "object",
        "additionalProperties": false,
        "properties": {
          "userId": {
            "type": "string",
            "nullable": true
          },
          "roleId": {
            "type": "string",
            "nullable": true
          }
        }
      }
    },
    "securitySchemes": {
      "JWT": {
        "type": "apiKey",
        "description": "Type into the textbox: Bearer {your JWT token}.",
        "name": "Authorization",
        "in": "header"
      }
    }
  },
  "security": [
    {
      "JWT": []
    }
  ]
}